[TRACE] 2019-11-22 23:43:56.658 Application:10 - This is a trace message 
[DEBUG] 2019-11-22 23:43:56.662 Application:11 - This is a debug message 
[INFO ] 2019-11-22 23:43:56.662 Application:12 - This is a info message 
[TRACE] 2019-11-23 00:08:44.379 Application:10 - This is a trace message 
[DEBUG] 2019-11-23 00:08:44.382 Application:11 - This is a debug message 
[INFO ] 2019-11-23 00:08:44.382 Application:12 - This is a info message 
[TRACE] 2019-11-23 00:09:54.127 Application:10 - This is a trace message 
[DEBUG] 2019-11-23 00:09:54.131 Application:11 - This is a debug message 
[INFO ] 2019-11-23 00:09:54.131 Application:12 - This is a info message 
[TRACE] 2019-11-23 00:10:23.515 Application:10 - This is a trace message 
[DEBUG] 2019-11-23 00:10:23.521 Application:11 - This is a debug message 
[INFO ] 2019-11-23 00:10:23.521 Application:12 - This is a info message 
[TRACE] 2019-11-23 00:10:34.177 Application:10 - This is a trace message 
[DEBUG] 2019-11-23 00:10:34.180 Application:11 - This is a debug message 
[INFO ] 2019-11-23 00:10:34.181 Application:12 - This is a info message 
[TRACE] 2019-11-23 00:11:14.965 Application:10 - This is a trace message 
[DEBUG] 2019-11-23 00:11:14.969 Application:11 - This is a debug message 
[INFO ] 2019-11-23 00:11:14.969 Application:12 - This is a info message 
[TRACE] 2019-11-23 00:11:34.625 Application:10 - This is a trace message 
[DEBUG] 2019-11-23 00:11:34.627 Application:11 - This is a debug message 
[INFO ] 2019-11-23 00:11:34.628 Application:12 - This is a info message 
[TRACE] 2019-11-23 00:11:52.284 Application:10 - This is a trace message 
[DEBUG] 2019-11-23 00:11:52.287 Application:11 - This is a debug message 
[INFO ] 2019-11-23 00:11:52.287 Application:12 - This is a info message 
[TRACE] 2019-11-23 00:12:34.178 Application:10 - This is a trace message 
[DEBUG] 2019-11-23 00:12:34.182 Application:11 - This is a debug message 
[INFO ] 2019-11-23 00:12:34.182 Application:12 - This is a info message 
[TRACE] 2019-11-23 00:16:18.211 Application:10 - This is a trace message 
[DEBUG] 2019-11-23 00:16:18.215 Application:11 - This is a debug message 
[INFO ] 2019-11-23 00:16:18.215 Application:12 - This is a info message 
[TRACE] 2019-11-23 00:16:38.536 Application:10 - This is a trace message 
[DEBUG] 2019-11-23 00:16:38.539 Application:11 - This is a debug message 
[INFO ] 2019-11-23 00:16:38.539 Application:12 - This is a info message 
[TRACE] 2019-11-24 11:52:35.029 Application:10 - This is a trace message 
[DEBUG] 2019-11-24 11:52:35.033 Application:11 - This is a debug message 
[INFO ] 2019-11-24 11:52:35.033 Application:12 - This is a info message 
[TRACE] 2019-11-24 12:00:46.384 Application:10 - This is a trace message 
[DEBUG] 2019-11-24 12:00:46.387 Application:11 - This is a debug message 
[INFO ] 2019-11-24 12:00:46.387 Application:12 - This is a info message 
[TRACE] 2019-11-24 12:08:19.476 Application:10 - This is a trace message 
[DEBUG] 2019-11-24 12:08:19.479 Application:11 - This is a debug message 
[INFO ] 2019-11-24 12:08:19.479 Application:12 - This is a info message 
[TRACE] 2019-11-24 13:36:36.904 Application:10 - This is a trace message 
[DEBUG] 2019-11-24 13:36:36.909 Application:11 - This is a debug message 
[INFO ] 2019-11-24 13:36:36.909 Application:12 - This is a info message 
[TRACE] 2019-11-24 13:37:31.886 Application:10 - This is a trace message 
[DEBUG] 2019-11-24 13:37:31.890 Application:11 - This is a debug message 
[INFO ] 2019-11-24 13:37:31.890 Application:12 - This is a info message 
